{
  "actions": [
    {
      "name": "getAuthZoneDetailsByfqdnName",
      "protocol": "REST",
      "method": "GET",
      "entitypath": "{base_path}/{version}/zone_auth{pathv1}?{query}",
      "requestSchema": "oschema.json",
      "responseSchema": "oschema.json",
      "timeout": 0,
      "sendEmpty": false,
      "sendGetBody": false,
      "requestDatatype": "JSON",
      "responseDatatype": "JSON",
      "headers": {},
      "responseObjects": [
        {
          "type": "default",
          "key": "",
          "mockFile": "mockdatafiles/getAuthZoneDetailsByfqdnName.json"
        }
      ]
    },
    {
      "name": "createAuthZone",
      "protocol": "REST",
      "method": "POST",
      "entitypath": "{base_path}/{version}/zone_auth{pathv1}?{query}",
      "requestSchema": "oschema.json",
      "responseSchema": "oschema.json",
      "timeout": 0,
      "sendEmpty": false,
      "sendGetBody": false,
      "requestDatatype": "JSON",
      "responseDatatype": "JSON",
      "headers": {},
      "responseObjects": [
        {
          "type": "default",
          "key": "",
          "mockFile": "mockdatafiles/createAuthZone.json"
        }
      ]
    },
    {
      "name": "getForwardZones",
      "protocol": "REST",
      "method": "GET",
      "entitypath": "{base_path}/{version}/zone_forward?{query}",
      "requestSchema": "schema.json",
      "responseSchema": "schema.json",
      "timeout": 0,
      "sendEmpty": false,
      "sendGetBody": false,
      "requestDatatype": "JSON",
      "responseDatatype": "JSON",
      "headers": {},
      "responseObjects": [
        {
          "type": "default",
          "key": "",
          "mockFile": ""
        }
      ]
    },
    {
      "name": "createForwardZone",
      "protocol": "REST",
      "method": "POST",
      "entitypath": "{base_path}/{version}/zone_forward?{query}",
      "requestSchema": "schema.json",
      "responseSchema": "schema.json",
      "timeout": 0,
      "sendEmpty": false,
      "sendGetBody": false,
      "requestDatatype": "JSON",
      "responseDatatype": "JSON",
      "headers": {},
      "responseObjects": [
        {
          "type": "default",
          "key": "",
          "mockFile": ""
        }
      ]
    },
    {
      "name": "deleteZones",
      "protocol": "REST",
      "method": "DELETE",
      "entitypath": "{base_path}/{version}/{pathv1}?{query}",
      "requestSchema": "schema.json",
      "responseSchema": "schema.json",
      "timeout": 0,
      "sendEmpty": false,
      "sendGetBody": false,
      "requestDatatype": "JSON",
      "responseDatatype": "JSON",
      "headers": {},
      "responseObjects": [
        {
          "type": "default",
          "key": "",
          "mockFile": ""
        }
      ]
    },
    {
      "name": "getZoneDelegations",
      "protocol": "REST",
      "method": "GET",
      "entitypath": "{base_path}/{version}/zone_delegated?{query}",
      "requestSchema": "schema.json",
      "responseSchema": "schema.json",
      "timeout": 0,
      "sendEmpty": false,
      "sendGetBody": false,
      "requestDatatype": "JSON",
      "responseDatatype": "JSON",
      "headers": {},
      "responseObjects": [
        {
          "type": "default",
          "key": "",
          "mockFile": ""
        }
      ]
    },
    {
      "name": "createZoneDelegation",
      "protocol": "REST",
      "method": "POST",
      "entitypath": "{base_path}/{version}/zone_delegated?{query}",
      "requestSchema": "schema.json",
      "responseSchema": "schema.json",
      "timeout": 0,
      "sendEmpty": false,
      "sendGetBody": false,
      "requestDatatype": "JSON",
      "responseDatatype": "JSON",
      "headers": {},
      "responseObjects": [
        {
          "type": "default",
          "key": "",
          "mockFile": ""
        }
      ]
    },
    {
      "name": "deleteAuthZoneByRef",
      "protocol": "REST",
      "method": "DELETE",
      "entitypath": "{base_path}/{version}/zone_auth/{pathv1}?{query}",
      "requestSchema": "schema.json",
      "responseSchema": "schema.json",
      "timeout": 0,
      "sendEmpty": false,
      "sendGetBody": false,
      "requestDatatype": "JSON",
      "responseDatatype": "JSON",
      "headers": {},
      "responseObjects": [
        {
          "type": "default",
          "key": "",
          "mockFile": ""
        }
      ]
    },
    {
      "name": "deleteAuthZone",
      "protocol": "REST",
      "method": "DELETE",
      "entitypath": "{base_path}/{version}/zone_auth{pathv1}?{query}",
      "requestSchema": "oschema.json",
      "responseSchema": "oschema.json",
      "timeout": 0,
      "sendEmpty": false,
      "sendGetBody": false,
      "requestDatatype": "JSON",
      "responseDatatype": "JSON",
      "headers": {},
      "responseObjects": [
        {
          "type": "default",
          "key": "",
          "mockFile": ""
        }
      ]
    }
  ]
}