{
  "table": [
    {
      "num_called": 38,
      "numRetries": 0,
      "numRedirects": 0,
      "throttleCount": 0,
      "timeouts": 0,
      "tot_queue_time": 0,
      "tot_rnd_trip": 5961,
      "tot_library": 6405,
      "tot_overall": 0,
      "results.200": 38,
      "time_units": "ms",
      "entity": ".system",
      "action": "healthcheck",
      "isThrottling": false
    },
    {
      "num_called": 2,
      "numRetries": 0,
      "numRedirects": 0,
      "throttleCount": 0,
      "timeouts": 0,
      "tot_queue_time": 0,
      "tot_rnd_trip": 94,
      "tot_library": 65,
      "tot_overall": 0,
      "results.400": 1,
      "time_units": "ms",
      "entity": "Records",
      "action": "getTxtRecords",
      "isThrottling": false,
      "results.200": 2
    },
    {
      "num_called": 7,
      "numRetries": 0,
      "numRedirects": 0,
      "throttleCount": 0,
      "timeouts": 0,
      "tot_queue_time": 0,
      "tot_rnd_trip": 845,
      "tot_library": 868,
      "tot_overall": 0,
      "results.200": 7,
      "time_units": "ms",
      "entity": "DHCPProperties",
      "action": "getMemberDhcp",
      "isThrottling": false
    },
    {
      "num_called": 129,
      "numRetries": 0,
      "numRedirects": 0,
      "throttleCount": 0,
      "timeouts": 0,
      "tot_queue_time": 0,
      "tot_rnd_trip": 16982,
      "tot_library": 22527,
      "tot_overall": 0,
      "results.400": 23,
      "time_units": "ms",
      "entity": "Networks",
      "action": "getNextAvailableIps",
      "results.undefined": 4,
      "results.200": 107,
      "isThrottling": false
    },
    {
      "num_called": 11,
      "numRetries": 0,
      "numRedirects": 0,
      "throttleCount": 0,
      "timeouts": 0,
      "tot_queue_time": 0,
      "tot_rnd_trip": 696,
      "tot_library": 1443,
      "tot_overall": 0,
      "results.200": 10,
      "time_units": "ms",
      "entity": "Networks",
      "action": "getNetworkKeyByIP",
      "results.400": 2,
      "results.undefined": 2,
      "isThrottling": false
    },
    {
      "num_called": 21,
      "numRetries": 0,
      "numRedirects": 0,
      "throttleCount": 0,
      "timeouts": 0,
      "tot_queue_time": 0,
      "tot_rnd_trip": 5143,
      "tot_library": 6226,
      "tot_overall": 0,
      "results.200": 18,
      "time_units": "ms",
      "entity": "Networks",
      "action": "getNetworkDetails",
      "isThrottling": false,
      "results.400": 4
    },
    {
      "num_called": 3,
      "numRetries": 0,
      "numRedirects": 0,
      "throttleCount": 0,
      "timeouts": 0,
      "tot_queue_time": 0,
      "tot_rnd_trip": 146,
      "tot_library": 216,
      "tot_overall": 0,
      "results.400": 3,
      "time_units": "ms",
      "entity": "Records",
      "action": "createHostRecord",
      "isThrottling": false
    },
    {
      "num_called": 12,
      "numRetries": 0,
      "numRedirects": 0,
      "throttleCount": 0,
      "timeouts": 0,
      "tot_queue_time": 0,
      "tot_rnd_trip": 931,
      "tot_library": 981,
      "tot_overall": 0,
      "results.400": 7,
      "time_units": "ms",
      "entity": "FixedAddresses",
      "action": "createFixedAddress",
      "isThrottling": false,
      "results.201": 6
    },
    {
      "num_called": 1,
      "numRetries": 0,
      "numRedirects": 0,
      "throttleCount": 0,
      "timeouts": 0,
      "tot_queue_time": 0,
      "tot_rnd_trip": 52,
      "tot_library": 57,
      "tot_overall": 0,
      "results.400": 1,
      "time_units": "ms",
      "entity": "Records",
      "action": "createARecord",
      "isThrottling": false
    },
    {
      "num_called": 2,
      "numRetries": 0,
      "numRedirects": 0,
      "throttleCount": 0,
      "timeouts": 0,
      "tot_queue_time": 0,
      "tot_rnd_trip": 128,
      "tot_library": 135,
      "tot_overall": 0,
      "results.400": 2,
      "time_units": "ms",
      "entity": "Records",
      "action": "deleteHostRecord",
      "isThrottling": false
    },
    {
      "num_called": 1,
      "numRetries": 0,
      "numRedirects": 0,
      "throttleCount": 0,
      "timeouts": 0,
      "tot_queue_time": 0,
      "tot_rnd_trip": 64,
      "tot_library": 68,
      "tot_overall": 0,
      "results.400": 1,
      "time_units": "ms",
      "entity": "Records",
      "action": "deleteARecord",
      "isThrottling": false
    },
    {
      "num_called": 12,
      "numRetries": 0,
      "numRedirects": 0,
      "throttleCount": 0,
      "timeouts": 0,
      "tot_queue_time": 0,
      "tot_rnd_trip": 2980,
      "tot_library": 3510,
      "tot_overall": 0,
      "results.400": 11,
      "time_units": "ms",
      "entity": "Networks",
      "action": "getIpDetails",
      "isThrottling": false,
      "results.500": 2
    },
    {
      "num_called": 88,
      "numRetries": 0,
      "numRedirects": 0,
      "throttleCount": 0,
      "timeouts": 0,
      "tot_queue_time": 0,
      "tot_rnd_trip": 22886,
      "tot_library": 26884,
      "tot_overall": 0,
      "results.400": 10,
      "time_units": "ms",
      "entity": "Object",
      "action": "createObject",
      "isThrottling": false,
      "results.201": 79
    },
    {
      "num_called": 11,
      "numRetries": 0,
      "numRedirects": 0,
      "throttleCount": 0,
      "timeouts": 0,
      "tot_queue_time": 0,
      "tot_rnd_trip": 894,
      "tot_library": 1472,
      "tot_overall": 0,
      "results.200": 11,
      "time_units": "ms",
      "entity": "Object",
      "action": "deleteObject",
      "isThrottling": false
    },
    {
      "num_called": 40,
      "numRetries": 0,
      "numRedirects": 0,
      "throttleCount": 0,
      "timeouts": 0,
      "tot_queue_time": 0,
      "tot_rnd_trip": 8729,
      "tot_library": 10564,
      "tot_overall": 0,
      "results.200": 37,
      "time_units": "ms",
      "entity": "Object",
      "action": "updateObject",
      "isThrottling": false,
      "results.400": 2,
      "results.500": 3
    },
    {
      "num_called": 57,
      "numRetries": 0,
      "numRedirects": 0,
      "throttleCount": 0,
      "timeouts": 0,
      "tot_queue_time": 0,
      "tot_rnd_trip": 6060,
      "tot_library": 8634,
      "tot_overall": 0,
      "results.400": 12,
      "time_units": "ms",
      "entity": "Object",
      "action": "getObject",
      "isThrottling": false,
      "results.200": 46
    },
    {
      "num_called": 1,
      "numRetries": 0,
      "numRedirects": 0,
      "throttleCount": 0,
      "timeouts": 0,
      "tot_queue_time": 0,
      "tot_rnd_trip": 94,
      "tot_library": 168,
      "tot_overall": 0,
      "results.400": 1,
      "time_units": "ms",
      "entity": "Networks",
      "action": "getNetworkContainerDetails",
      "isThrottling": false
    },
    {
      "num_called": 33,
      "numRetries": 0,
      "numRedirects": 0,
      "throttleCount": 0,
      "timeouts": 0,
      "tot_queue_time": 0,
      "tot_rnd_trip": 5081,
      "tot_library": 5242,
      "tot_overall": 0,
      "results.200": 33,
      "time_units": "ms",
      "entity": "Services",
      "action": "getGrid",
      "isThrottling": false
    },
    {
      "num_called": 6,
      "numRetries": 0,
      "numRedirects": 0,
      "throttleCount": 0,
      "timeouts": 0,
      "tot_queue_time": 0,
      "tot_rnd_trip": 289,
      "tot_library": 320,
      "tot_overall": 0,
      "results.500": 6,
      "time_units": "ms",
      "entity": "Services",
      "action": "restartServices",
      "isThrottling": false
    }
  ]
}