{
  "status": 200,
  "response": [
    {
      "_ref": "ipam:statistics/ZG5zLm5ldHdvcmtfY29udGFpbmVyJDEuMS4xLjAvMjQvMA:default/1.1.1.0/24",
      "network": "1.1.1.0",
      "network_view": "default",
      "utilization": 10
    }
  ]
}